semaforo/wave.vcd
$date
     Apr 18, 2017       23:38:21
$end

$version
 SystemC 2.3.1-Accellera --- Apr 17 2017 22:48:25
$end

$timescale
     1 ps
$end

$scope module SystemC $end
$var wire    1  aaaaa  IC       $end
$var wire    1  aaaab  IL       $end
$var wire    1  aaaac  clk       $end
$upscope $end
$enddefinitions  $end

$comment
All initial values are dumped below at time 0 sec = 0 timescale units.
$end

$dumpvars
0aaaaa
0aaaab
1aaaac
$end

#50
0aaaac

#100
1aaaac

#150
0aaaac

#200
1aaaaa
1aaaac

#250
0aaaac

#300
0aaaaa
1aaaac

#350
0aaaac

#400
1aaaab
1aaaac

#450
0aaaac

#500
0aaaab
1aaaac

#550
0aaaac

#600
1aaaac

#650
0aaaac

#700
1aaaac

#750
0aaaac

#800
1aaaaa
1aaaac

#850
0aaaac

#900
0aaaaa
1aaaac

#950
0aaaac

#1000
1aaaac

#1050
0aaaac

#1100
1aaaac

#1150
0aaaac

#1200
1aaaac

#1250
0aaaac

#1300
1aaaac

#1350
0aaaac

#1400
1aaaaa
1aaaac

#1450
0aaaac

#1500
0aaaaa
1aaaac

#1550
0aaaac

#1600
1aaaab
1aaaac

#1650
0aaaac

#1700
0aaaab
1aaaac

#1750
0aaaac

#1800
1aaaac

#1850
0aaaac

#1900
1aaaac

#1950
0aaaac

#2000
1aaaaa
1aaaac

#2050
0aaaac

#2100
0aaaaa
1aaaac

#2150
0aaaac

#2200
1aaaac

#2250
0aaaac

#2300
1aaaac

#2350
0aaaac

#2400
1aaaac

#2450
0aaaac

#2500
1aaaac

#2550
0aaaac

#2600
1aaaaa
1aaaac

#2650
0aaaac

#2700
0aaaaa
1aaaac

#2750
0aaaac

#2800
1aaaab
1aaaac

#2850
0aaaac

#2900
0aaaab
1aaaac

#2950
0aaaac

#3000
1aaaac

#3050
0aaaac

#3100
1aaaac

#3150
0aaaac

#3200
1aaaaa
1aaaac

#3250
0aaaac

#3300
0aaaaa
1aaaac

#3350
0aaaac

#3400
1aaaac

#3450
0aaaac

#3500
1aaaac

#3550
0aaaac

#3600
1aaaac

#3650
0aaaac

#3700
1aaaac

#3750
0aaaac

#3800
1aaaaa
1aaaac

#3850
0aaaac

#3900
0aaaaa
1aaaac

#3950
0aaaac

#4000
1aaaab
1aaaac

#4050
0aaaac

#4100
0aaaab
1aaaac

#4150
0aaaac

#4200
1aaaac

#4250
0aaaac

#4300
1aaaac

#4350
0aaaac

#4400
1aaaaa
1aaaac

#4450
0aaaac

#4500
0aaaaa
1aaaac

#4550
0aaaac

#4600
1aaaac

#4650
0aaaac

#4700
1aaaac

#4750
0aaaac

#4800
1aaaac

#4850
0aaaac

#4900
1aaaac

#4950
0aaaac

#5000
1aaaaa
1aaaac

#5050
0aaaac

#5100
0aaaaa
1aaaac

#5150
0aaaac

#5200
1aaaab
1aaaac

#5250
0aaaac

#5300
0aaaab
1aaaac

#5350
0aaaac

#5400
1aaaac

#5450
0aaaac

#5500
1aaaac

#5550
0aaaac

#5600
1aaaaa
1aaaac

#5650
0aaaac

#5700
0aaaaa
1aaaac

